name,task_point
Delivery,11
Clean office,3
Teach dancing,4
Customer support,5
Develop new feature,8
Make photos,2
Go surfing,8
Cook Dinner,4
Bug Fixing,7
Run marathon,9
Book tickets,3
Writing Requirements,12
Sell products,6
Play Ping Pong,2
Purchase Lunch,2
